<svg width="127" height="23" viewBox="0 0 127 23" fill="none" xmlns="http://www.w3.org/2000/svg">
<path d="M45.8203 12.2247C45.8782 11.2839 46.0043 10.3483 46.1977 9.42518C46.4493 8.04076 46.709 6.77569 46.9767 5.62996L46.0211 4.18416C47.5492 3.50218 48.6225 3.16119 49.2411 3.16119C49.8598 3.16119 50.1691 3.54651 50.1691 4.31715C50.0673 5.21634 49.864 6.10155 49.5632 6.95641L49.7467 7.04507C50.6284 4.45582 51.7237 3.16119 53.0325 3.16119C53.2898 3.14429 53.5476 3.18419 53.7872 3.27799C54.0269 3.37179 54.2422 3.51712 54.4175 3.70337C54.7238 4.03445 54.8941 4.46595 54.8953 4.91388C54.8999 5.23428 54.8353 5.55197 54.7057 5.84591C54.5762 6.13985 54.3847 6.40331 54.1439 6.61883C53.643 7.0894 52.8905 7.32468 51.8864 7.32468C50.3699 7.32468 49.6116 8.86027 49.6116 11.9315C49.5672 12.505 49.7012 13.0784 49.996 13.575C49.2365 14.1661 48.544 14.4616 47.9185 14.4616C46.5197 14.4639 45.8203 13.7182 45.8203 12.2247Z" fill="white"/>
<path d="M60.6083 13.6466C60.0539 13.8482 59.4679 13.9521 58.877 13.9535C58.3464 13.9699 57.8288 13.7899 57.4263 13.4489C57.0239 13.1004 56.7754 12.611 56.7338 12.0849C56.6715 11.5052 56.6161 10.6652 56.5676 9.56499C56.5191 8.46473 56.4707 7.685 56.4222 7.2258C56.2629 5.69589 55.7736 4.60586 54.9541 3.9557C55.5465 3.4311 56.3219 3.15251 57.1181 3.17825C57.5631 3.16927 57.9995 3.29939 58.3646 3.54992C58.724 3.80289 59.0161 4.13741 59.2164 4.52516C59.4614 5.02011 59.6373 5.54546 59.7392 6.08689C59.9752 7.50792 60.0795 8.94714 60.0508 10.3868C60.0508 10.8414 60.0323 11.3654 59.9954 11.9587H61.0584C62.3187 8.61022 62.9488 6.32672 62.9488 5.10825C62.9511 4.70712 62.8574 4.31111 62.6753 3.95229C63.3369 3.49846 64.1111 3.22978 64.9155 3.17484C66.1019 3.17484 66.6952 3.85 66.6952 5.20032C66.6952 6.2733 66.1931 8.15897 65.189 10.8573C65.0044 11.3506 64.9005 11.6393 64.8774 11.7235C63.3401 16.0813 61.1403 18.2602 58.278 18.2602C57.5227 18.29 56.7754 18.0977 56.1314 17.7078C55.874 17.5611 55.6605 17.3503 55.5122 17.0964C55.3639 16.8426 55.286 16.5549 55.2865 16.262C55.3187 15.5842 55.5603 14.9323 55.979 14.3934C56.2108 14.7647 56.5343 15.072 56.9194 15.2867C57.3045 15.5013 57.7386 15.6164 58.1811 15.621C58.6908 15.618 59.1848 15.4463 59.5834 15.1334C60.0596 14.742 60.4146 14.2269 60.6083 13.6466Z" fill="white"/>
<path d="M68.4922 10.5777C68.4922 9.56614 68.8892 6.96439 69.6833 2.77249L68.6445 1.32669C69.2637 0.959137 69.9068 0.632213 70.5696 0.34805C71.0603 0.131896 71.5903 0.0158989 72.1277 0.00705962C72.5344 -0.0251747 72.9397 0.0833625 73.2738 0.313951C73.4045 0.439573 73.5052 0.592235 73.5687 0.760896C73.6322 0.929557 73.6568 1.11 73.6408 1.28918C73.6408 2.05982 73.4019 3.57154 72.9241 5.82435L73.1076 5.91642C73.9893 4.19328 75.2739 3.33171 76.9613 3.33171C77.4089 3.32 77.8517 3.42481 78.245 3.63556C78.6384 3.8463 78.9683 4.15552 79.2014 4.532C79.7586 5.40071 80.0396 6.41358 80.0082 7.44064C80.0232 8.50276 79.786 9.55365 79.3157 10.5095C78.8994 11.3679 78.2909 12.1222 77.536 12.7158C76.82 13.2696 76.018 13.706 75.1608 14.0081C74.3429 14.302 73.4796 14.4542 72.609 14.4582C71.224 14.4582 70.1853 14.1445 69.4928 13.5171C68.8003 12.8897 68.4668 11.9099 68.4922 10.5777ZM72.1243 12.3679C72.7439 12.3906 73.3612 12.2803 73.9333 12.0448C74.5055 11.8093 75.0188 11.4542 75.4378 11.004C76.2496 10.1818 76.7063 9.08185 76.712 7.93508C76.7157 7.43333 76.5648 6.94226 76.2792 6.52679C76.163 6.33406 75.9977 6.17451 75.7998 6.06388C75.6018 5.95325 75.378 5.89537 75.1504 5.89596C74.9078 5.90076 74.6686 5.95263 74.4464 6.04858C74.2242 6.14454 74.0234 6.28271 73.8555 6.45518C73.456 6.83096 73.1431 7.28678 72.9379 7.79186C72.709 8.35891 72.534 8.94565 72.4151 9.54455C72.2267 10.4745 72.1258 11.4197 72.1139 12.3679H72.1243Z" fill="white"/>
<path d="M88.6641 11.7883L88.4806 11.6996C88.2051 12.4969 87.7129 13.2045 87.0576 13.7455C86.4744 14.2233 85.7387 14.4829 84.9801 14.4787C84.5022 14.4896 84.0285 14.389 83.5976 14.1852C83.1668 13.9813 82.791 13.6799 82.5011 13.3057C81.8778 12.535 81.5662 11.5052 81.5662 10.2163C81.5455 9.28685 81.7158 8.36287 82.0668 7.49987C82.4178 6.63687 82.9424 5.85265 83.6089 5.19432C84.2754 4.53599 85.0702 4.01714 85.9454 3.66893C86.8207 3.32072 87.7584 3.15034 88.7022 3.16803C89.1897 3.16362 89.6761 3.21164 90.153 3.31124C90.22 3.60287 90.2628 3.89936 90.2811 4.19782C90.8405 3.82748 91.4975 3.62601 92.1716 3.61813C93.0649 3.61813 93.5115 4.09438 93.5115 5.04688C93.3894 6.08155 93.1963 7.10687 92.9333 8.11579C92.6143 9.35327 92.4206 10.6188 92.3551 11.894C92.3551 12.7123 92.5444 13.2807 92.9229 13.5989C92.3471 14.1451 91.5857 14.4611 90.7866 14.4855C90.4844 14.5116 90.1803 14.4661 89.8996 14.3528C89.6189 14.2395 89.3698 14.0617 89.1731 13.8342C88.8338 13.3864 88.6641 12.7044 88.6641 11.7883ZM85.0113 9.32971C84.9805 9.81296 85.1132 10.2926 85.3887 10.6937C85.5156 10.8522 85.6794 10.9783 85.8662 11.0614C86.053 11.1445 86.2574 11.1821 86.462 11.1711C86.968 11.16 87.4556 10.9823 87.847 10.6664C88.3294 10.2941 88.719 9.81829 88.9861 9.27516C89.135 7.82194 89.3743 6.37911 89.7029 4.95481C89.0973 4.95253 88.4971 5.06791 87.9369 5.29435C87.3766 5.5208 86.8672 5.85385 86.4378 6.27444C85.994 6.65582 85.6377 7.12575 85.3923 7.65308C85.147 8.18041 85.0183 8.75309 85.0148 9.33313L85.0113 9.32971Z" fill="white"/>
<path d="M97.0709 2.77248L96.0322 1.32668C97.5672 0.446927 98.7744 0.00704985 99.6539 0.00704985C100.034 -0.0296167 100.414 0.0776784 100.717 0.307121C100.964 0.627454 101.075 1.02943 101.028 1.42898C101.028 1.97684 100.756 3.52152 100.211 6.06303C99.6666 8.60454 99.3942 10.3879 99.3942 11.4132C99.3942 12.4361 99.5835 13.159 99.962 13.5819C99.2949 14.1039 98.482 14.4131 97.6318 14.4684C97.3389 14.492 97.0447 14.4418 96.777 14.3225C96.5093 14.2032 96.2768 14.0187 96.1014 13.7865C95.7476 13.2267 95.5782 12.5727 95.6167 11.9144C95.6167 11.1188 95.8475 9.49225 96.3092 7.03485C96.7708 4.57745 97.0247 3.15666 97.0709 2.77248Z" fill="white"/>
<path d="M104.041 2.77248L103.002 1.32668C104.539 0.446927 105.749 0.00704985 106.631 0.00704985C107.011 -0.0296167 107.391 0.0776784 107.694 0.307121C107.81 0.443874 107.897 0.602043 107.951 0.772405C108.004 0.942767 108.023 1.12191 108.005 1.2994C107.984 1.95244 107.908 2.6026 107.777 3.24304C107.624 4.07506 107.422 5.05711 107.171 6.1892C106.919 7.32128 106.739 8.23059 106.631 8.91712L107.787 7.89415L108.31 7.44404C108.561 7.23263 108.739 7.07918 108.843 6.9837L109.276 6.57793C109.429 6.44651 109.569 6.30155 109.695 6.14487L109.989 5.72886C110.161 5.46182 110.25 5.15143 110.245 4.83547C110.251 4.53708 110.202 4.24012 110.1 3.95912C110.832 3.48303 111.682 3.21408 112.558 3.18167C112.786 3.17109 113.013 3.20817 113.225 3.29046C113.437 3.37275 113.628 3.49838 113.787 3.65905C114.117 4.04323 114.282 4.53835 114.248 5.04006C114.213 5.7279 113.915 6.37717 113.413 6.85754C112.813 7.49764 112.112 8.03772 111.336 8.45678C111.693 9.64427 112.186 10.7882 112.804 11.8667C113.404 12.9033 113.906 13.5239 114.31 13.7285C113.821 14.2218 113.063 14.4684 112.035 14.4684C111.68 14.4769 111.327 14.4141 110.997 14.284C110.668 14.1538 110.368 13.959 110.117 13.7114C109.598 13.2045 109.136 12.3736 108.732 11.2188L108.275 9.93668L106.385 10.8573C106.373 10.9892 106.367 11.1881 106.367 11.4541C106.367 12.4543 106.557 13.1647 106.935 13.5853C106.268 14.1071 105.455 14.4163 104.605 14.4718C104.312 14.4954 104.018 14.4452 103.75 14.3259C103.483 14.2066 103.25 14.0221 103.075 13.7899C102.72 13.2305 102.549 12.5765 102.587 11.9178C102.587 11.1222 102.817 9.49566 103.279 7.03826C103.741 4.58086 103.995 3.15893 104.041 2.77248Z" fill="white"/>
<path d="M122.16 11.7883L121.976 11.6996C121.7 12.4969 121.208 13.2045 120.553 13.7455C119.97 14.2233 119.234 14.4829 118.476 14.4787C117.996 14.4913 117.52 14.3915 117.087 14.1875C116.654 13.9836 116.277 13.6814 115.986 13.3057C115.363 12.535 115.051 11.5052 115.051 10.2163C115.03 9.28656 115.201 8.3623 115.552 7.49906C115.903 6.63583 116.428 5.85145 117.095 5.19307C117.762 4.53469 118.557 4.01591 119.433 3.66791C120.309 3.31991 121.247 3.14988 122.191 3.16803C122.678 3.16363 123.165 3.21165 123.641 3.31125C123.708 3.60287 123.751 3.89937 123.77 4.19782C124.329 3.82748 124.986 3.62602 125.66 3.61814C126.553 3.61814 127 4.09439 127 5.04689C126.878 6.08155 126.685 7.10688 126.422 8.1158C126.103 9.35328 125.909 10.6189 125.844 11.894C125.844 12.7123 126.033 13.2807 126.411 13.5989C125.836 14.1451 125.074 14.4611 124.275 14.4855C123.973 14.5116 123.669 14.4661 123.388 14.3528C123.107 14.2395 122.858 14.0617 122.662 13.8342C122.327 13.3864 122.16 12.7044 122.16 11.7883ZM118.507 9.32972C118.476 9.81297 118.609 10.2926 118.884 10.6937C119.011 10.8522 119.175 10.9783 119.362 11.0614C119.548 11.1445 119.753 11.1821 119.957 11.1711C120.463 11.16 120.951 10.9823 121.342 10.6664C121.825 10.2941 122.214 9.81829 122.482 9.27516C122.63 7.82195 122.87 6.37912 123.198 4.95482C122.593 4.95254 121.993 5.06792 121.432 5.29436C120.872 5.5208 120.363 5.85385 119.933 6.27445C119.488 6.65488 119.129 7.1244 118.882 7.65178C118.635 8.17915 118.505 8.75231 118.5 9.33313L118.507 9.32972Z" fill="white"/>
<path d="M73.1872 21.6122H72.8098V19.1741C72.8307 18.9072 72.7742 18.64 72.6471 18.4035C72.5798 18.3199 72.4921 18.2545 72.3922 18.2133C72.2923 18.1722 72.1834 18.1566 72.0758 18.1682C71.8656 18.1721 71.6616 18.2386 71.4906 18.3591C71.2777 18.5082 71.0906 18.6901 70.9366 18.8979V21.6258H70.5696V19.1741C70.5717 19.0211 70.5601 18.8682 70.535 18.7172C70.5178 18.6053 70.4764 18.4983 70.4138 18.4035C70.3579 18.3241 70.2797 18.2625 70.1888 18.2262C70.0785 18.184 69.9607 18.1643 69.8425 18.1682C69.6384 18.1704 69.4405 18.2374 69.2782 18.3591C69.073 18.5125 68.8911 18.6939 68.738 18.8979V21.6258H68.3537V17.8749H68.7311V18.4205C68.835 18.296 68.9509 18.1818 69.0773 18.0795C69.1748 18.0035 69.2804 17.9383 69.3924 17.8852C69.4826 17.8432 69.5781 17.8134 69.6763 17.7965C69.761 17.783 69.8467 17.7761 69.9326 17.776C70.1464 17.7704 70.3568 17.83 70.535 17.9465C70.7053 18.0755 70.8272 18.2567 70.8812 18.4614C70.9648 18.3353 71.0649 18.2207 71.179 18.1204C71.2756 18.0369 71.3827 17.9659 71.4976 17.909C71.6019 17.8587 71.7125 17.822 71.8265 17.7999C71.9314 17.7796 72.0381 17.7693 72.145 17.7692C72.8214 17.7692 73.1584 18.2239 73.156 19.1332L73.1872 21.6122Z" fill="white"/>
<path d="M78.6855 21.1484C78.5688 21.2549 78.4424 21.3508 78.3081 21.4349C78.199 21.5051 78.083 21.5645 77.9619 21.6122C77.85 21.6539 77.734 21.6837 77.6156 21.7008C77.5009 21.7165 77.3852 21.7245 77.2694 21.7247C77.1172 21.7259 76.9659 21.7005 76.8227 21.6497C76.6943 21.6024 76.5766 21.5306 76.4765 21.4383C76.3734 21.3424 76.292 21.2262 76.2376 21.0973C76.1782 20.9605 76.1487 20.813 76.151 20.6642C76.1441 20.4664 76.1896 20.2702 76.2831 20.095C76.3766 19.9198 76.5149 19.7717 76.6842 19.6651C77.1737 19.4007 77.7307 19.2822 78.2873 19.3241H78.7201C78.7212 19.1725 78.7119 19.021 78.6924 18.8706C78.6772 18.7429 78.6321 18.6204 78.5609 18.5126C78.4846 18.406 78.3788 18.3231 78.2562 18.2739C78.0803 18.2096 77.8931 18.1806 77.7057 18.1886C77.4389 18.1716 77.1727 18.2282 76.937 18.3523C76.8521 18.4081 76.7808 18.4816 76.7281 18.5677C76.6754 18.6537 76.6427 18.7502 76.6323 18.8502H76.2584C76.2653 18.6981 76.3051 18.5492 76.3749 18.4134C76.4448 18.2776 76.5431 18.158 76.6635 18.0625C76.9732 17.8701 77.3368 17.7793 77.7022 17.8033C77.922 17.7977 78.1412 17.83 78.3497 17.8988C78.5145 17.955 78.663 18.0498 78.7825 18.175C78.8968 18.3012 78.9797 18.4517 79.0248 18.6149C79.0774 18.8037 79.103 18.9988 79.101 19.1946V21.636H78.7236L78.6855 21.1484ZM78.6855 19.706H78.1142C77.6923 19.6794 77.2707 19.763 76.892 19.9481C76.7684 20.0151 76.6657 20.114 76.5949 20.2342C76.5241 20.3543 76.488 20.4912 76.4903 20.6301C76.4857 20.7304 76.5063 20.8302 76.5504 20.9206C76.5946 21.0111 76.6607 21.0893 76.7431 21.1484C76.902 21.2432 77.0797 21.3036 77.2642 21.3253C77.4487 21.3471 77.6358 21.3298 77.813 21.2746C77.9341 21.2355 78.0503 21.1828 78.1592 21.1177C78.2638 21.0552 78.3623 20.9833 78.4535 20.9029C78.5355 20.8315 78.613 20.7552 78.6855 20.6745V19.706Z" fill="white"/>
<path d="M83.9068 18.175H83.7926H83.6576C83.5499 18.1753 83.4436 18.1985 83.3459 18.2432C83.243 18.2902 83.1464 18.3498 83.0586 18.4205C82.9652 18.4939 82.8794 18.5761 82.8023 18.666C82.7271 18.7544 82.6599 18.8491 82.6015 18.949V21.6258H82.2241V17.8749H82.6015V18.3898C82.6954 18.2738 82.8022 18.1685 82.9201 18.0761C83.0143 18.0027 83.1165 17.9398 83.2248 17.8886C83.3149 17.8466 83.4104 17.8167 83.5087 17.7999C83.5911 17.7867 83.6744 17.7798 83.758 17.7794H83.8272H83.9034L83.9068 18.175Z" fill="white"/>
<path d="M89.3428 21.6122H88.8719L87.5354 19.5049L86.9364 20.1016V21.6122H86.5659V16.3336H86.9434V19.6174L88.6953 17.8681H89.187L87.802 19.2321L89.3428 21.6122Z" fill="white"/>
<path d="M93.5497 21.7111C93.312 21.714 93.0763 21.6688 92.8572 21.5781C92.6522 21.4909 92.4699 21.3592 92.324 21.1928C92.1674 21.0109 92.0497 20.7998 91.9777 20.5722C91.8175 20.0333 91.8175 19.4606 91.9777 18.9218C92.0502 18.6954 92.1679 18.4855 92.324 18.3046C92.4635 18.1393 92.6385 18.0066 92.8364 17.9159C93.043 17.8237 93.2675 17.7771 93.4943 17.7795C93.7267 17.7764 93.957 17.8229 94.1694 17.9159C94.3682 18.0051 94.5435 18.1381 94.6819 18.3046C94.8305 18.4872 94.9411 18.697 95.0073 18.9218C95.0865 19.1886 95.125 19.4656 95.1216 19.7436V19.8322H92.2478C92.26 20.058 92.3054 20.2809 92.3828 20.4937C92.4463 20.6649 92.5427 20.8223 92.6667 20.9575C92.7781 21.0778 92.9153 21.1722 93.0684 21.2337C93.2258 21.2958 93.394 21.327 93.5635 21.3258C93.6907 21.3261 93.8174 21.3112 93.9409 21.2814C94.0629 21.2541 94.1797 21.2081 94.2871 21.145C94.3862 21.0866 94.4731 21.0102 94.5434 20.92C94.6121 20.8296 94.6541 20.7222 94.6645 20.6097H95.035C95.0046 20.7765 94.9424 20.9362 94.8515 21.0802C94.765 21.2125 94.6547 21.328 94.5261 21.4212C94.3936 21.518 94.2447 21.5908 94.0863 21.6361C93.9122 21.6873 93.7313 21.7126 93.5497 21.7111ZM94.7234 19.4435C94.693 19.0865 94.5432 18.7495 94.2975 18.4853C94.1899 18.3812 94.0621 18.2995 93.9217 18.245C93.7813 18.1905 93.6312 18.1644 93.4804 18.1682C93.3279 18.1673 93.1765 18.1939 93.0338 18.2466C92.8946 18.298 92.7683 18.3783 92.6633 18.4819C92.5484 18.5975 92.4557 18.7327 92.3897 18.8809C92.31 19.0613 92.2564 19.2518 92.2305 19.4469L94.7234 19.4435Z" fill="white"/>
<path d="M99.2038 21.6463H99.0445H98.8852C98.7499 21.6514 98.6151 21.6269 98.4905 21.5747C98.3944 21.5298 98.3155 21.4557 98.2654 21.3633C98.2103 21.2569 98.1762 21.1412 98.165 21.0223C98.1479 20.8603 98.1398 20.6975 98.1408 20.5347V18.25H97.6734V17.8783H98.1408V16.8963H98.5182V17.8749H99.1172V18.2602H98.5182V20.579C98.5147 20.7025 98.5252 20.826 98.5494 20.9472C98.565 21.0247 98.5994 21.0972 98.6498 21.1587C98.6918 21.2073 98.7491 21.2408 98.8125 21.2541C98.8842 21.269 98.9574 21.2759 99.0306 21.2746H99.2038V21.6463Z" fill="white"/>
<path d="M102.306 18.4205C102.408 18.2945 102.524 18.1801 102.652 18.0795C102.751 18.0005 102.859 17.934 102.974 17.8817C103.069 17.8401 103.169 17.8114 103.272 17.7965C103.365 17.7835 103.459 17.7767 103.553 17.776C103.762 17.7722 103.969 17.8202 104.155 17.9158C104.332 18.0102 104.484 18.1446 104.598 18.308C104.725 18.4939 104.818 18.7006 104.872 18.9184C104.937 19.1771 104.968 19.4429 104.965 19.7094C104.966 19.9886 104.927 20.2665 104.847 20.5346C104.784 20.7608 104.681 20.9743 104.543 21.1655C104.421 21.3315 104.264 21.4689 104.082 21.5678C103.905 21.6631 103.706 21.7124 103.504 21.7111C103.418 21.7111 103.324 21.7111 103.231 21.7111C103.132 21.7015 103.034 21.6809 102.94 21.6497C102.831 21.6135 102.726 21.5655 102.628 21.5065C102.503 21.4357 102.387 21.351 102.282 21.2541V23H101.904V17.8852H102.282L102.306 18.4205ZM102.306 20.7631C102.446 20.9334 102.622 21.0719 102.822 21.169C103.021 21.2661 103.24 21.3196 103.463 21.3257C103.622 21.3287 103.78 21.2936 103.923 21.2234C104.062 21.1502 104.181 21.0449 104.269 20.9166C104.375 20.7631 104.451 20.5921 104.494 20.4119C104.551 20.182 104.578 19.946 104.574 19.7094C104.602 19.3056 104.503 18.9032 104.29 18.5569C104.2 18.4309 104.079 18.3292 103.939 18.2613C103.799 18.1933 103.643 18.1613 103.487 18.1682C103.239 18.1823 102.999 18.2582 102.79 18.3889C102.58 18.5195 102.408 18.7006 102.289 18.9149L102.306 20.7631Z" fill="white"/>
<path d="M108.31 21.6122H107.932V16.3336H108.31V21.6122Z" fill="white"/>
<path d="M113.85 21.1484C113.733 21.2549 113.607 21.3508 113.472 21.4348C113.363 21.5051 113.247 21.5645 113.126 21.6122C113.014 21.6539 112.898 21.6836 112.78 21.7008C112.665 21.7165 112.549 21.7245 112.434 21.7247C112.281 21.7259 112.13 21.7005 111.987 21.6497C111.859 21.6024 111.741 21.5305 111.641 21.4383C111.538 21.3424 111.456 21.2262 111.402 21.0973C111.342 20.9605 111.313 20.8129 111.315 20.6642C111.308 20.4664 111.354 20.2702 111.447 20.095C111.541 19.9198 111.679 19.7717 111.848 19.6651C112.338 19.4007 112.895 19.2822 113.452 19.3241H113.85C113.851 19.1725 113.842 19.021 113.822 18.8706C113.807 18.7429 113.762 18.6203 113.69 18.5126C113.614 18.4059 113.508 18.3231 113.386 18.2739C113.21 18.2096 113.023 18.1806 112.835 18.1886C112.569 18.1715 112.302 18.2282 112.067 18.3523C111.982 18.4081 111.91 18.4816 111.858 18.5677C111.805 18.6537 111.772 18.7502 111.762 18.8501H111.388C111.389 18.6956 111.424 18.5431 111.49 18.403C111.556 18.263 111.653 18.1387 111.772 18.0386C112.082 17.8462 112.446 17.7555 112.811 17.7794C113.031 17.7738 113.25 17.8061 113.459 17.8749C113.623 17.9311 113.772 18.0259 113.891 18.1511C114.006 18.2773 114.089 18.4279 114.134 18.591C114.186 18.7798 114.212 18.9749 114.21 19.1707V21.6122H113.85V21.1484ZM113.85 19.706H113.278C112.857 19.6794 112.435 19.7629 112.056 19.9481C111.933 20.0151 111.83 20.114 111.759 20.2341C111.688 20.3543 111.652 20.4912 111.655 20.6301C111.65 20.7303 111.671 20.8302 111.715 20.9206C111.759 21.0111 111.825 21.0893 111.907 21.1484C112.066 21.2432 112.244 21.3035 112.428 21.3253C112.613 21.3471 112.8 21.3298 112.977 21.2746C113.098 21.2355 113.215 21.1828 113.323 21.1177C113.428 21.0552 113.527 20.9833 113.618 20.9029C113.7 20.8315 113.777 20.7552 113.85 20.6744V19.706Z" fill="white"/>
<path d="M118.798 21.7111C118.57 21.714 118.345 21.6699 118.136 21.5815C117.938 21.4947 117.762 21.364 117.624 21.1996C117.468 21.0186 117.35 20.8088 117.278 20.5824C117.122 20.0371 117.122 19.4602 117.278 18.9149C117.349 18.6883 117.467 18.4783 117.624 18.2978C117.763 18.1338 117.938 18.0032 118.136 17.9158C118.504 17.7622 118.914 17.7405 119.296 17.8545C119.443 17.8999 119.58 17.9715 119.701 18.0659C119.821 18.1602 119.922 18.2758 119.999 18.4069C120.082 18.5541 120.138 18.7145 120.165 18.8808H119.798C119.785 18.7712 119.748 18.6655 119.691 18.5705C119.636 18.4816 119.563 18.405 119.476 18.3455C119.384 18.2827 119.28 18.2365 119.171 18.2091C119.05 18.1783 118.926 18.1634 118.801 18.1648C118.626 18.1626 118.453 18.1963 118.292 18.2637C118.138 18.3297 118.003 18.4315 117.897 18.5603C117.78 18.7068 117.694 18.875 117.645 19.0547C117.528 19.5022 117.528 19.9713 117.645 20.4187C117.694 20.5985 117.78 20.7666 117.897 20.9131C118.003 21.042 118.138 21.1438 118.292 21.2098C118.453 21.2772 118.626 21.3108 118.801 21.3087C118.918 21.309 119.034 21.2941 119.147 21.2644C119.256 21.2358 119.359 21.1897 119.452 21.128C119.541 21.0693 119.617 20.994 119.677 20.9063C119.739 20.813 119.778 20.7068 119.791 20.596H120.158C120.128 20.7625 120.069 20.9227 119.985 21.07C119.908 21.2009 119.807 21.3166 119.687 21.411C119.567 21.5063 119.43 21.5781 119.282 21.6224C119.126 21.6759 118.963 21.7058 118.798 21.7111Z" fill="white"/>
<path d="M124.375 21.7111C124.138 21.714 123.902 21.6688 123.683 21.5781C123.478 21.4909 123.296 21.3592 123.15 21.1928C122.993 21.0109 122.876 20.7998 122.804 20.5722C122.643 20.0333 122.643 19.4606 122.804 18.9218C122.876 18.6954 122.994 18.4855 123.15 18.3046C123.289 18.1393 123.464 18.0066 123.662 17.9159C123.869 17.8237 124.093 17.7771 124.32 17.7795C124.553 17.7764 124.783 17.8229 124.995 17.9159C125.194 18.0051 125.369 18.1381 125.508 18.3046C125.656 18.4872 125.767 18.697 125.833 18.9218C125.912 19.1886 125.951 19.4656 125.947 19.7436V19.8322H123.074C123.086 20.058 123.131 20.2809 123.209 20.4937C123.272 20.6649 123.369 20.8223 123.493 20.9575C123.604 21.0778 123.741 21.1722 123.894 21.2337C124.052 21.2958 124.22 21.327 124.389 21.3258C124.517 21.3261 124.643 21.3112 124.767 21.2814C124.889 21.2541 125.006 21.2081 125.113 21.145C125.212 21.0866 125.299 21.0102 125.369 20.92C125.438 20.8296 125.48 20.7222 125.49 20.6097H125.861C125.83 20.7765 125.768 20.9362 125.677 21.0802C125.591 21.2125 125.481 21.328 125.352 21.4212C125.219 21.518 125.071 21.5908 124.912 21.6361C124.738 21.6873 124.557 21.7126 124.375 21.7111ZM125.549 19.4435C125.519 19.0865 125.369 18.7495 125.123 18.4853C125.016 18.3812 124.888 18.2995 124.748 18.245C124.607 18.1905 124.457 18.1644 124.306 18.1682C124.154 18.1673 124.002 18.1939 123.86 18.2466C123.72 18.298 123.594 18.3783 123.489 18.4819C123.374 18.5975 123.282 18.7327 123.216 18.8809C123.136 19.0613 123.082 19.2518 123.056 19.4469L125.549 19.4435Z" fill="white"/>
<path d="M25.6552 14.7523C33.875 16.5508 38.521 11.8079 38.521 11.8079C38.521 11.8079 32.9859 3.55819 24.7487 1.8413C21.3012 1.13308 13.1991 2.92724 8.75363 5.27508C19.2354 6.99197 17.4267 12.941 25.6552 14.7523ZM24.6746 9.3527C24.4271 9.38366 24.1868 9.45625 23.9642 9.56731C23.764 9.66612 23.5929 9.81392 23.4673 9.99653C23.2226 10.4348 23.1264 10.9386 23.1928 11.4344C23.2139 11.7137 23.2503 11.9917 23.3017 12.2671C23.354 12.5504 23.4194 12.838 23.4761 13.1256C23.0624 12.6647 22.7639 12.115 22.6044 11.5203C22.5161 11.2062 22.4823 10.8797 22.5041 10.5545C22.5166 10.3827 22.5487 10.2128 22.6 10.048C22.6252 9.96267 22.6572 9.87942 22.6959 9.79909L22.7569 9.67891L22.8267 9.56302C22.9305 9.41093 23.0551 9.27371 23.1971 9.15526C23.3413 9.04513 23.4995 8.95421 23.6678 8.88485C23.9868 8.75711 24.3308 8.70138 24.6746 8.72174C25.3003 8.7628 25.9028 8.9705 26.4179 9.32266C25.8374 9.2701 25.2529 9.28018 24.6746 9.3527ZM30.6106 10.0824C30.6262 9.92312 30.675 9.76875 30.7541 9.629C30.8332 9.48925 30.9409 9.36714 31.0703 9.27037C31.1996 9.1736 31.348 9.10426 31.5059 9.06672C31.6638 9.02918 31.8279 9.02425 31.9879 9.05224C32.2021 9.10361 32.3985 9.2102 32.5571 9.36106C32.7156 9.51192 32.8305 9.70163 32.89 9.91069C32.7987 9.76427 32.6608 9.6516 32.4979 9.59015C32.3349 9.5287 32.1559 9.52189 31.9886 9.57079C31.8213 9.61968 31.675 9.72153 31.5725 9.86058C31.4699 9.99963 31.4168 10.1681 31.4213 10.3399C31.4249 10.5131 31.4869 10.6801 31.5975 10.8147C31.708 10.9494 31.8609 11.0441 32.032 11.0839C32.2032 11.1237 32.3829 11.1064 32.5429 11.0346C32.703 10.9629 32.8343 10.8408 32.9162 10.6876C32.8599 10.9871 32.6861 11.2528 32.4325 11.4271C32.1788 11.6014 31.8656 11.6703 31.5607 11.619C31.2375 11.5248 30.9612 11.3162 30.7849 11.0332C30.6087 10.7503 30.545 10.4131 30.6063 10.0867L30.6106 10.0824ZM25.6683 6.25371C25.681 6.08189 25.7132 5.91201 25.7642 5.74723C25.7892 5.6618 25.8212 5.57854 25.8601 5.49828L25.9211 5.37381L25.9952 5.26221C26.0944 5.10798 26.218 4.97033 26.3613 4.85445C26.5044 4.74167 26.6628 4.6492 26.832 4.57974C27.1523 4.45137 27.4979 4.39563 27.8431 4.41664C28.4689 4.45705 29.0716 4.66481 29.5864 5.01755C29.0071 4.95499 28.4225 4.95499 27.8431 5.01755C27.5921 5.04783 27.3486 5.12196 27.124 5.23645C26.9222 5.33466 26.7495 5.4825 26.6228 5.66568C26.3786 6.10414 26.2825 6.60772 26.3482 7.10357C26.3693 7.38286 26.4057 7.66083 26.4571 7.93627C26.5095 8.21955 26.5748 8.50713 26.6315 8.79471C26.217 8.33442 25.9184 7.78448 25.7598 7.18942C25.6779 6.88447 25.647 6.56844 25.6683 6.25371ZM21.31 6.02622C21.3371 5.94091 21.3706 5.8577 21.4102 5.77727L21.4712 5.65709L21.541 5.5412C21.6448 5.38911 21.7694 5.25189 21.9114 5.13344C22.0584 5.01379 22.223 4.91682 22.3995 4.84586C22.7187 4.71869 23.0626 4.66297 23.4063 4.68276C24.0317 4.72508 24.634 4.93267 25.1497 5.28367C24.5704 5.21927 23.9856 5.21927 23.4063 5.28367C23.154 5.31452 22.9092 5.3886 22.6828 5.50257C22.4809 5.59883 22.3092 5.74716 22.186 5.93179C21.9359 6.38677 21.847 6.91086 21.9332 7.4212C21.9332 7.69161 21.9942 7.9706 22.0465 8.25389C22.0988 8.53718 22.1642 8.82476 22.2209 9.11234C21.8076 8.65122 21.5091 8.10158 21.3492 7.50704C21.2614 7.19284 21.226 6.86666 21.2446 6.54129C21.2615 6.36654 21.2966 6.19395 21.3492 6.02622H21.31Z" fill="#5FB34E"/>
<path d="M37.3573 14.5291C36.6859 14.8074 35.9974 15.0439 35.2958 15.2374C33.9043 15.6222 32.4728 15.8498 31.029 15.9155L30.5017 15.9413H29.9438C29.5864 15.9413 29.2247 15.9413 28.8673 15.9155C28.1482 15.8898 27.4334 15.8254 26.7143 15.731C25.9972 15.6427 25.2857 15.5152 24.5831 15.349C23.8864 15.1806 23.2044 14.9581 22.5434 14.6837C21.8869 14.4065 21.2592 14.0673 20.6693 13.6707C20.074 13.2663 19.5102 12.8186 18.9826 12.3315C17.9018 11.3572 16.8601 10.2541 15.6398 9.32696C15.0299 8.87109 14.3843 8.46349 13.7091 8.10796C13.0345 7.76227 12.3353 7.46532 11.6171 7.21947C11.2553 7.10358 10.8979 6.9834 10.5318 6.88897C10.1657 6.79454 9.804 6.70011 9.4379 6.61856C9.25485 6.57564 9.0718 6.5413 8.88439 6.50696L8.33089 6.40395C7.96043 6.34386 7.58997 6.29235 7.21951 6.24084C7.58125 6.33098 7.94735 6.41253 8.30909 6.50696L8.84953 6.65719C9.02822 6.7087 9.20691 6.75591 9.3856 6.816L9.91732 6.9834C10.096 7.03491 10.266 7.10787 10.4447 7.16797C10.7977 7.28815 11.1376 7.43408 11.4776 7.57573C12.1529 7.86797 12.8081 8.20348 13.4388 8.58011C14.0533 8.96365 14.6362 9.3942 15.1822 9.86778C16.3023 10.8164 17.248 11.9366 18.2984 13.0011C18.8407 13.5439 19.4234 14.0461 20.0417 14.5034C20.6709 14.9627 21.3438 15.3608 22.0509 15.6923C22.2252 15.7825 22.4039 15.8511 22.5826 15.9327L22.8528 16.0486L23.1274 16.1516C23.4891 16.2975 23.8596 16.4134 24.2257 16.5379C24.9643 16.7658 25.7151 16.9535 26.4746 17.1002L26.7579 17.156L27.0455 17.1989C27.2373 17.2247 27.4291 17.259 27.6208 17.2805C28.0087 17.3148 28.3923 17.362 28.7845 17.3749C28.9806 17.3749 29.1724 17.3749 29.3685 17.3749C29.5646 17.3749 29.7564 17.3749 29.9525 17.3749L30.5366 17.3448L31.1336 17.2933C32.6806 17.1281 34.1922 16.727 35.614 16.1044C35.967 15.9499 36.3113 15.7782 36.6469 15.5936C36.9825 15.409 37.3094 15.2116 37.6275 14.997C38.268 14.5821 38.8535 14.0904 39.3709 13.5333C38.7268 13.9159 38.0536 14.2488 37.3573 14.5291Z" fill="#5FB34E"/>
<path d="M31.4582 21.4754C32.5586 20.9504 33.1861 19.9869 32.8597 19.3234C32.5333 18.6599 31.3766 18.5478 30.2762 19.0728C29.1758 19.5979 28.5483 20.5614 28.8747 21.2248C29.2011 21.8883 30.3577 22.0005 31.4582 21.4754Z" fill="#5FB34E"/>
<path d="M23.8477 21.4743C24.9482 20.9492 25.5756 19.9857 25.2492 19.3222C24.9228 18.6588 23.7662 18.5466 22.6657 19.0716C21.5653 19.5967 20.9378 20.5602 21.2642 21.2237C21.5906 21.8871 22.7473 21.9993 23.8477 21.4743Z" fill="#5FB34E"/>
<path d="M5.72028 10.1682H4.48688H4.30819L4.33869 10.3442C4.33869 10.3914 4.33869 10.4386 4.36484 10.4816L4.22974 10.5073C3.90805 10.5816 3.57246 10.5741 3.25453 10.4855C2.9366 10.3969 2.64678 10.2301 2.41231 10.0008C2.19273 9.78703 2.03315 9.52085 1.94913 9.22823C1.86511 8.93561 1.85952 8.62654 1.9329 8.33115C2.01321 8.01066 2.16364 7.71131 2.37367 7.45405C2.58371 7.19678 2.84827 6.98781 3.14887 6.84175C3.78083 6.56276 7.75998 5.55408 8.01712 5.46395C8.01712 5.46395 4.09463 5.89317 2.95275 5.86312C2.62381 5.84105 2.30425 5.74575 2.01813 5.58442C1.73201 5.42308 1.48679 5.19991 1.30094 4.93171C1.12776 4.6826 1.02273 4.39372 0.996013 4.09297C0.969292 3.79222 1.02178 3.48976 1.1484 3.21482C1.28266 2.91747 1.49151 2.65863 1.7553 2.46266C2.0191 2.26668 2.32918 2.14001 2.65638 2.09455H2.79149C2.79149 2.13747 2.79149 2.18469 2.81764 2.2319L2.85686 2.40788L3.02684 2.34779L3.86799 2.04304L5.26266 1.53656L5.73772 1.36487C5.73772 1.36487 3.34064 1.11163 2.53435 1.25756C2.34436 1.29374 2.15776 1.34542 1.97648 1.41208C1.53601 1.55954 1.1369 1.8069 0.811362 2.13421C0.485823 2.46153 0.242971 2.85962 0.102401 3.29637C-0.0196934 3.74391 -0.032805 4.21351 0.0641322 4.66698C0.161069 5.12044 0.365318 5.54498 0.660266 5.90605C0.75615 6.03052 0.860749 6.1507 0.965349 6.27518L1.02637 6.34815C0.965079 6.40156 0.916797 6.46788 0.885108 6.54219C0.853418 6.61649 0.839134 6.69688 0.843316 6.77737C0.867716 6.85531 0.909838 6.92674 0.966479 6.98624C1.02312 7.04574 1.09279 7.09174 1.17019 7.12075L1.13968 7.21088C1.08302 7.3654 1.03072 7.51134 0.987141 7.64011C0.843787 8.08214 0.808544 8.55128 0.884285 9.00927C0.960025 9.46726 1.14461 9.90114 1.42297 10.2755C1.71132 10.6372 2.08223 10.9267 2.50555 11.1206C2.92888 11.3145 3.39268 11.4073 3.85928 11.3915C4.05253 11.3858 4.24495 11.3643 4.43458 11.3271C5.23651 11.1812 7.38952 10.1253 7.38952 10.1253H6.87088L5.72028 10.1682Z" fill="#5FB34E"/>
</svg>
